varify_webhook="{\n  \"events\": [\n    {\n      \"replyToken\": \"00000000000000000000000000000000\",\n      \"type\": \"message\",\n      \"timestamp\": 1531719983967,\n      \"source\": {\n        \"type\": \"user\",\n        \"userId\": \"Udeadbeefdeadbeefdeadbeefdeadbeef\"\n      },\n      \"message\": {\n        \"id\": \"100001\",\n        \"type\": \"text\",\n        \"text\": \"Hello, world\"\n      }\n    },\n    {\n      \"replyToken\": \"ffffffffffffffffffffffffffffffff\",\n      \"type\": \"message\",\n      \"timestamp\": 1531719983967,\n      \"source\": {\n        \"type\": \"user\",\n        \"userId\": \"Udeadbeefdeadbeefdeadbeefdeadbeef\"\n      },\n      \"message\": {\n        \"id\": \"100002\",\n        \"type\": \"sticker\",\n        \"packageId\": \"1\",\n        \"stickerId\": \"1\"\n      }\n    }\n  ]\n}\n"

follow_webhook="{\"events\":[{\"type\":\"follow\",\"replyToken\":\"a6912a2715ea4341bb46c3cd1fb1ed2e\",\"source\":{\"userId\":\"U481bb8a529adf4ecdfbd22e77991c41a\",\"type\":\"user\"},\"timestamp\":1531720345138}]}"

unfollow_webhook="{\"events\":[{\"type\":\"unfollow\",\"source\":{\"userId\":\"U481bb8a529adf4ecdfbd22e77991c41a\",\"type\":\"user\"},\"timestamp\":1531720427059}]}"

incoming_message="{\"events\":[{\"type\":\"message\",\"replyToken\":\"4804a82cc1874d60b0e9ff635a27bf87\",\"source\":{\"userId\":\"U481bb8a529adf4ecdfbd22e77991c41a\",\"type\":\"user\"},\"timestamp\":1531720554294,\"message\":{\"type\":\"text\",\"id\":\"8271664021461\",\"text\":\"hey\"}}]}"
